intro/combinational_gates_muxed.vcd
$date
   Tue Apr 10 22:04:06 2018
$end
$version
  P.20160913
$end
$timescale
  1ps
$end
$scope module combinational_gates_muxed_tb $end
$scope module UUT $end
$var wire 1 ! sw [4] $end
$var wire 1 " sw [3] $end
$var wire 1 # sw [2] $end
$var wire 1 $ sw [1] $end
$var wire 1 % sw [0] $end
$var wire 1 & nand_out $end
$var wire 1 ' and_out $end
$var wire 1 ( nor_out $end
$var wire 1 ) or_out $end
$var wire 1 * xor_out $end
$var wire 1 + xnor_out $end
$var wire 1 , buff_out $end
$var wire 1 - not_out $end
$var wire 1 . MuxIn [7] $end
$var wire 1 / MuxIn [6] $end
$var wire 1 0 MuxIn [5] $end
$var wire 1 1 MuxIn [4] $end
$var wire 1 2 MuxIn [3] $end
$var wire 1 3 MuxIn [2] $end
$var wire 1 4 MuxIn [1] $end
$var wire 1 5 MuxIn [0] $end
$var wire 1 6 SelectIn [2] $end
$var wire 1 7 SelectIn [1] $end
$var wire 1 8 SelectIn [0] $end
$var reg 1 9 led $end
$upscope $end
$upscope $end
$enddefinitions $end
#0
$dumpvars
19
1(
0)
0*
1+
0,
1-
15
04
13
02
01
10
0/
1.
08
07
06
0$
0#
0"
0!
1&
0'
0%
$end
#5000
0(
1)
1*
0+
1,
0-
03
12
11
00
1/
0.
1%
#10000
0,
1-
0/
1.
1$
0%
#15000
09
0*
1+
1,
0-
05
14
01
10
1/
0.
0&
1'
1%
#20000
1(
0)
0,
1-
15
04
13
02
0/
1.
18
0$
1#
1&
0'
0%
#25000
0(
1)
1*
0+
1,
0-
03
12
11
00
1/
0.
1%
#30000
0,
1-
0/
1.
1$
0%
#35000
19
0*
1+
1,
0-
05
14
01
10
1/
0.
0&
1'
1%
#40000
1(
0)
0,
1-
15
04
13
02
0/
1.
08
17
0$
0#
1"
1&
0'
0%
#45000
09
0(
1)
1*
0+
1,
0-
03
12
11
00
1/
0.
1%
#50000
0,
1-
0/
1.
1$
0%
#55000
0*
1+
1,
0-
05
14
01
10
1/
0.
0&
1'
1%
#60000
1(
0)
0,
1-
15
04
13
02
0/
1.
18
0$
1#
1&
0'
0%
#65000
19
0(
1)
1*
0+
1,
0-
03
12
11
00
1/
0.
1%
#70000
0,
1-
0/
1.
1$
0%
#75000
0*
1+
1,
0-
05
14
01
10
1/
0.
0&
1'
1%
#80000
09
1(
0)
0,
1-
15
04
13
02
0/
1.
08
07
16
0$
0#
0"
1!
1&
0'
0%
#85000
19
0(
1)
1*
0+
1,
0-
03
12
11
00
1/
0.
1%
#90000
0,
1-
0/
1.
1$
0%
#95000
09
0*
1+
1,
0-
05
14
01
10
1/
0.
0&
1'
1%
#100000
19
1(
0)
0,
1-
15
04
13
02
0/
1.
18
0$
1#
1&
0'
0%
#105000
09
0(
1)
1*
0+
1,
0-
03
12
11
00
1/
0.
1%
#110000
0,
1-
0/
1.
1$
0%
#115000
19
0*
1+
1,
0-
05
14
01
10
1/
0.
0&
1'
1%
#120000
09
1(
0)
0,
1-
15
04
13
02
0/
1.
08
17
0$
0#
1"
1&
0'
0%
#125000
19
0(
1)
1*
0+
1,
0-
03
12
11
00
1/
0.
1%
#130000
09
0,
1-
0/
1.
1$
0%
#135000
19
0*
1+
1,
0-
05
14
01
10
1/
0.
0&
1'
1%
#140000
1(
0)
0,
1-
15
04
13
02
0/
1.
18
0$
1#
1&
0'
0%
#145000
09
0(
1)
1*
0+
1,
0-
03
12
11
00
1/
0.
1%
#150000
19
0,
1-
0/
1.
1$
0%
#155000
09
0*
1+
1,
0-
05
14
01
10
1/
0.
0&
1'
1%
